{
  "name": "uclnlp",
  "type": "SNet AI service",
  "version": 0.0.1,
  "update_timestamp": 1617272413,
  "image": "registry.gitlab.com/nunet/fake-news-detection/uclnlp/uclnlp:latest",
  "declarations": {
    "input": "base64 encoded protobuf definition / idris type declaration",
    "output": "base64 encoded protobuf definition / idris type declaration",
    "functional": "?",
    "reputation": [
      {
        "source": "aigents",
        "score": 5
      }
    ]
  },
  "resource_requirements": {
    "cpu_max": 500, # MHz
    "ram_max": 128, # MB
    "cpu_usage": 1.4, # MTicks (million ticks)
    "ram_usage": 200, # MBs (megabyte seconds)
    "time": 100000, # seconds
    "net_usage": 1200, # KB (required amount of data to be transferred)
    "net_max": 2400 #KB/s (required max bandwidth)
  },
  "price": {
    "type": "per single call",
    "amount": 1,
    "unit": "agi",
    "deployment": "included in price"
  },
  "constraints": {
    "deployment": "only on machines powered by green energy"
  }
}
